{
  "CNBC": {
    "domain": "cnbc.com",
    "allow_cookies": 1,
    "block_regex": "\\.tinypass\\.com\\/",
    "cs_code": [{
        "cond": "div.ArticleGate-proGate",
        "rm_elem": 1,
        "elems": [{
            "cond": "span[hidden]",
            "rm_attrib": "class"
          }, {
            "cond": "span[hidden]",
            "rm_attrib": "hidden"
          }
        ]
    }],
    "new_site": 1
  },
  "Dagens ETC": {
    "domain": "etc.se",
    "allow_cookies": 1,
    "cs_code": [{
        "cond": "div.paywalled",
        "rm_attrib": "class"
    }],
    "new_site": 1
  },
  "La Vanguardia": {
    "domain": "lavanguardia.com",
    "allow_cookies": 1,
    "block_regex": "(\\.evolok\\.net\\/|\\.lavanguardia\\.com\\/js\\/godo-basex-)"
  },
  "The Spectator (UK)": {
    "domain": "spectator.co.uk",
    "useragent": "googlebot"
  },
  "The Washington Post": {
    "domain": "washingtonpost.com",
    "allow_cookies": 1,
    "block_regex": "\\.washingtonpost\\.com\\/tetro\\/metering\\/evaluate"
  },
  "###_gr_au_nine_domains": {
    "group_rule_domains": ["brisbanetimes.com.au", "smh.com.au", "theage.com.au", "watoday.com.au"],
    "allow_cookies": 1,
    "block_regex": "(api\\.{domain}\\/graphql\\?query=.+PaywallRuleQuery|cdn\\.ampproject\\.org\\/v\\d\\/amp-subscriptions-.+\\.js)"
  }
}
